…
Let's first load the `gapminder` dataset.


```r
knitr::opts_chunk$set(echo = TRUE)
library(tidyverse)
library(tsibble)
library(gapminder)
attach(gapminder)
gapminder
```

```
## # A tibble: 1,704 x 6
##    country     continent  year lifeExp      pop gdpPercap
##    <fct>       <fct>     <int>   <dbl>    <int>     <dbl>
##  1 Afghanistan Asia       1952    28.8  8425333      779.
##  2 Afghanistan Asia       1957    30.3  9240934      821.
##  3 Afghanistan Asia       1962    32.0 10267083      853.
##  4 Afghanistan Asia       1967    34.0 11537966      836.
##  5 Afghanistan Asia       1972    36.1 13079460      740.
##  6 Afghanistan Asia       1977    38.4 14880372      786.
##  7 Afghanistan Asia       1982    39.9 12881816      978.
##  8 Afghanistan Asia       1987    40.8 13867957      852.
##  9 Afghanistan Asia       1992    41.7 16317921      649.
## 10 Afghanistan Asia       1997    41.8 22227415      635.
## # ... with 1,694 more rows
```
…
\newpage

We can also try to make a sub-dataset of gapminder wider to see if we can make plots easier that way. Let's take the `gap_lifeExp_continent_year` tibble that we created before and select only the median life expectancy within each continent.


```r
gap_lifeExp_continent_year
```

```
## # A tibble: 1,704 x 7
## # Groups:   year, continent [60]
##    continent  year lifeExp min_lifeExp max_lifeExp mean_lifeExp med_lifeExp
##    <fct>     <int>   <dbl>       <dbl>       <dbl>        <dbl>       <dbl>
##  1 Asia       1952    28.8        28.8        65.4         46.3        44.9
##  2 Asia       1957    30.3        30.3        67.8         49.3        48.3
##  3 Asia       1962    32.0        32.0        69.4         51.6        49.3
##  4 Asia       1967    34.0        34.0        71.4         54.7        53.7
##  5 Asia       1972    36.1        36.1        73.4         57.3        57.0
##  6 Asia       1977    38.4        31.2        75.4         59.6        60.8
##  7 Asia       1982    39.9        39.9        77.1         62.6        63.7
##  8 Asia       1987    40.8        40.8        78.7         64.9        66.3
##  9 Asia       1992    41.7        41.7        79.4         66.5        68.7
## 10 Asia       1997    41.8        41.8        80.7         68.0        70.3
## # ... with 1,694 more rows
```
…
\newpage

Again, we can make another subset of gapminder wider to see if we can make plots easier that way. Let's take the `gap_lifeExp_gdp_continent_year` tibble that we created before and select only the median life expectancy and median GDP per capita within each continent.


```r
gap_lifeExp_gdp_continent_year
```

```
## # A tibble: 1,704 x 12
## # Groups:   year, continent [60]
##    continent  year lifeExp gdpPercap min_lifeExp min_gdpPercap max_lifeExp
##    <fct>     <int>   <dbl>     <dbl>       <dbl>         <dbl>       <dbl>
##  1 Asia       1952    28.8      779.        28.8           331        65.4
##  2 Asia       1957    30.3      821.        30.3           350        67.8
##  3 Asia       1962    32.0      853.        32.0           388        69.4
##  4 Asia       1967    34.0      836.        34.0           349        71.4
##  5 Asia       1972    36.1      740.        36.1           357        73.4
##  6 Asia       1977    38.4      786.        31.2           371        75.4
##  7 Asia       1982    39.9      978.        39.9           424        77.1
##  8 Asia       1987    40.8      852.        40.8           385        78.7
##  9 Asia       1992    41.7      649.        41.7           347        79.4
## 10 Asia       1997    41.8      635.        41.8           415        80.7
## # ... with 1,694 more rows, and 5 more variables: max_gdpPercap <dbl>,
## #   mean_lifeExp <dbl>, mean_gdpPercap <dbl>, med_lifeExp <dbl>,
## #   med_gdpPercap <dbl>
```

```r
gap_lifeExp_gdp_continent_year <- 
  gap_lifeExp_gdp_continent_year %>% 
  distinct(continent, year, med_lifeExp, med_gdpPercap)
gap_lifeExp_gdp_continent_year
```

```
## # A tibble: 60 x 4
## # Groups:   year, continent [60]
##    continent  year med_lifeExp med_gdpPercap
##    <fct>     <int>       <dbl>         <dbl>
##  1 Asia       1952        44.9         1207.
##  2 Asia       1957        48.3         1548.
##  3 Asia       1962        49.3         1650.
##  4 Asia       1967        53.7         2029.
##  5 Asia       1972        57.0         2571.
##  6 Asia       1977        60.8         3195.
##  7 Asia       1982        63.7         4107.
##  8 Asia       1987        66.3         4106.
##  9 Asia       1992        68.7         3726.
## 10 Asia       1997        70.3         3645.
## # ... with 50 more rows
```
…
```r
gap_lifeExp_gdp_continent_year <-
  gap_lifeExp_gdp_continent_year %>% 
  pivot_longer(cols = -year,
               names_to = c("med", "continent"),
               names_sep = "-",
               values_to = c("value"))
(gap_lifeExp_gdp_continent_year %>% 
  pivot_wider(id_cols = c(year, continent),
               names_from = c("med"),
               values_from = c("value")))
```

```
## # A tibble: 60 x 4
## # Groups:   year [12]
##     year continent med_lifeExp med_gdpPercap
##    <int> <chr>           <dbl>         <dbl>
##  1  1952 Asia             44.9         1207.
##  2  1952 Europe           65.9         5142.
##  3  1952 Africa           38.8          987.
##  4  1952 Americas         54.7         3048.
##  5  1952 Oceania          69.3        10298.
##  6  1957 Asia             48.3         1548.
##  7  1957 Europe           67.6         6067.
##  8  1957 Africa           40.6         1024.
##  9  1957 Americas         56.1         3781.
## 10  1957 Oceania          70.3        11599.
## # ... with 50 more rows
```
…
1. To add emails for participants in `guest`, we first have to separate the names in `email`, then left join with `guest` by `name` variable.


```r
email <- email %>% 
  separate_rows(guest, sep = ",")
(guest <- guest %>% 
  rename(guest = name) %>% 
  left_join(email, by = "guest"))
```

```
## # A tibble: 30 x 8
##    party guest meal_wedding meal_brunch attendance_wedd~ attendance_brun~
##    <dbl> <chr> <chr>        <chr>       <chr>            <chr>           
##  1     1 Somm~ PENDING      PENDING     PENDING          PENDING         
##  2     1 Phil~ vegetarian   Menu C      CONFIRMED        CONFIRMED       
##  3     1 Blan~ chicken      Menu A      CONFIRMED        CONFIRMED       
##  4     1 Emaa~ PENDING      PENDING     PENDING          PENDING         
##  5     2 Blai~ chicken      Menu C      CONFIRMED        CONFIRMED       
##  6     2 Nige~ <NA>         <NA>        CANCELLED        CANCELLED       
##  7     3 Sine~ PENDING      PENDING     PENDING          PENDING         
##  8     4 Ayra~ vegetarian   Menu B      PENDING          PENDING         
##  9     5 Atla~ PENDING      PENDING     PENDING          PENDING         
## 10     5 Denz~ fish         Menu B      CONFIRMED        CONFIRMED       
## # ... with 20 more rows, and 2 more variables: attendance_golf <chr>,
## #   email <chr>
```
…
3. To include everyone we have emails for, we full join the left-joined guestlist with the original `email` dataset by `email` variable.


```r
(guest %>% 
  full_join(email, by = "email"))
```

```
## # A tibble: 46 x 9
##    party guest.x meal_wedding meal_brunch attendance_wedd~ attendance_brun~
##    <dbl> <chr>   <chr>        <chr>       <chr>            <chr>           
##  1     1 Sommer~ PENDING      PENDING     PENDING          PENDING         
##  2     1 Sommer~ PENDING      PENDING     PENDING          PENDING         
##  3     1 Sommer~ PENDING      PENDING     PENDING          PENDING         
##  4     1 Sommer~ PENDING      PENDING     PENDING          PENDING         
##  5     1 Philli~ vegetarian   Menu C      CONFIRMED        CONFIRMED       
##  6     1 Blanka~ chicken      Menu A      CONFIRMED        CONFIRMED       
##  7     1 Emaan ~ PENDING      PENDING     PENDING          PENDING         
##  8     2 Blair ~ chicken      Menu C      CONFIRMED        CONFIRMED       
##  9     2 Blair ~ chicken      Menu C      CONFIRMED        CONFIRMED       
## 10     2 Nigel ~ <NA>         <NA>        CANCELLED        CANCELLED       
## # ... with 36 more rows, and 3 more variables: attendance_golf <chr>,
## #   email <chr>, guest.y <chr>
```
